Starting Test for ,,,,
Transistor testing lab,,,,
16:21:20 Oct  1 2017,,,,
,,,,
,,,,
Please wait for device to measure data untill it stop printing *,,,,
PWM Init ,,,,
,,,,
* * * * * * * * * * * * * * * * Reading complete, hit anykey to continue print ,,,
,,,,
Print Column in the following order: ,,,,
,,,,
Duty,Excite,Base,Collector,Emitter
,,,,
refV = 3937,,,,
0,7.25,4.25,3905.44,5.44
1,43.44,42.44,3904.81,5.12
2,81.94,82.31,3905.69,4.81
3,120.25,121.75,3906.75,4.19
4,157.75,159.56,3908.25,5.19
5,198,198.19,3907.19,4.69
6,237.19,237.5,3906.81,3.44
7,278.88,276.12,3906.38,4.38
8,317.62,315.12,3906.81,5.25
9,358.12,357.19,3908.44,4.75
10,398.12,396.5,3908.31,4.88
11,436.12,438.19,3908.81,9.06
12,476,478.12,3870.12,47.62
13,513.94,508.75,3675.62,217.94
14,552,534.56,3221.25,627.12
15,591.06,554.75,2583.81,1201.62
16,629.94,572.12,1851.88,1843.12
17,669.88,588,1103.81,2484
18,710.19,601.94,556.5,2973.88
19,750.5,610,353.88,3158.56
20,789.94,615.5,230.31,3274.06
21,830.06,617.94,185.62,3317.69
22,867.75,618.25,167.88,3337.62
23,905.38,619.81,157.31,3350.88
24,941.31,620.06,148.69,3361.06
25,978.12,621.44,142.5,3370.62
26,1018.88,622.56,136.12,3378.56
27,1064.62,623.31,128.62,3385.44
28,1103.38,623.75,122.06,3392.75
29,1144.06,625.44,126.5,3398.06
30,1183.94,624.75,126.19,3405.31
31,1223.38,625.75,123.88,3409.88
32,1261.88,626.5,120.69,3414.94
33,1298,626.06,119.06,3420.38
34,1334.62,627.5,116.12,3425.81
35,1372.38,628.56,114.75,3432.31
36,1415.75,628.31,112.75,3436
37,1458.5,629.06,110.31,3441.06
38,1497.31,629.44,107.75,3445.62
39,1537.31,629.94,107.12,3450.44
40,1577.38,629.81,106.56,3456.06
41,1616.06,630.31,106.88,3459.38
42,1654.88,629.12,105.75,3464.44
43,1691.44,629.88,104.75,3468
44,1728.12,634.94,104.38,3471.94
45,1767.06,632.88,103.94,3477.31
46,1805.62,631.81,103.56,3481.75
47,1846,635.19,102.06,3486.56
48,1888.75,635.19,101.56,3490.56
49,1930.06,635.31,100.25,3494.75
50,1970.19,633.69,99.94,3498.62
51,2009.56,635.06,98.81,3502.12
52,2049,634.44,98.56,3507.44
53,2086.12,634.75,98.88,3510.5
54,2123.19,644.25,99.12,3514.12
55,2161.19,642.19,98.12,3518.44
56,2199.5,640.62,96.81,3523.38
57,2240.94,641.19,96.12,3526.62
58,2282.62,640.06,95.44,3530.81
59,2322.81,639.81,94.25,3533.75
60,2362.56,639.44,94.75,3538
61,2400.75,640.62,95.56,3542.69
62,2437.94,640.81,96.62,3545.94
63,2473.31,640.38,95.75,3550.38
64,2516.06,641.19,96.69,3554
65,2553.62,641.19,95.75,3558.19
66,2592.56,641.38,94.38,3562.06
67,2633.12,641.44,92.94,3566.25
68,2675.19,641.88,91.31,3569.75
69,2715.56,642.5,90.38,3572.19
70,2755.38,642.62,88.88,3578.31
71,2793.81,643.25,91.62,3582.62
72,2831,642.88,98.12,3585.88
73,2868.88,643.12,97.12,3589.12
74,2909.56,643.75,97.12,3593.75
75,2947.75,644.19,94.06,3597.19
76,2985.81,644.69,93.06,3601.56
77,3027.12,644.88,91.88,3604.56
78,3068.25,645.75,90.62,3608.44
79,3107.94,646.38,90.81,3611.12
80,3148,646.69,89.94,3615.81
81,3185.62,646.94,89.25,3619.75
82,3225.25,646.81,89.06,3624.62
83,3263.38,646.69,89.56,3627.88
84,3301.81,646.88,90.06,3633.31
85,3339.5,647.06,89.5,3634.62
86,3377.81,647.19,89.75,3638
87,3419.25,645.94,87.75,3642.38
88,3459.38,644.56,86.88,3646.62
89,3498.88,646.44,86.31,3650.81
90,3539.25,649.12,84.5,3653.62
91,3576.94,652.31,84.19,3657.44
92,3616.12,651.25,87.38,3661.31
93,3655,651.5,88.31,3665.31
94,3695.06,651.25,89.38,3669.69
95,3735.44,650.88,88.69,3673.44
96,3774.81,652.31,88.69,3675.81
97,3812.75,650.94,88.12,3679.56
98,3852.31,651.81,87.44,3682.81
99,3880.69,652.25,87.38,3686.38
100,3882.31,651.5,90,3686.25
