Starting Test for 
Transistor testing lab
16:21:20 Oct  1 2017


Please wait for device to measure data untill it stop printing *
PWM Init 

* * * * * * * * * * * * * * * * Reading complete, hit anykey to continue print 

Print Column in the following order: 

Duty, PD0, PE1, PD2, PD3 

refV = 3941
0,  7.56,  7.81,  3753.31,  3428.81 
1,  44.44,  45.56,  3752.94,  3428.75 
2,  83.06,  85.62,  3752.88,  3427.75 
3,  121.25,  122.19,  3753.81,  3429.12 
4,  160.00,  163.25,  3754.06,  3428.62 
5,  198.62,  201.75,  3753.75,  3428.25 
6,  238.69,  240.75,  3754.00,  3428.19 
7,  278.81,  279.25,  3755.06,  3428.06 
8,  318.94,  318.38,  3754.94,  3428.31 
9,  359.38,  357.88,  3756.25,  3427.25 
10,  398.19,  398.44,  3755.19,  3425.62 
11,  437.44,  443.38,  3756.38,  3426.00 
12,  476.31,  479.88,  3755.94,  3424.62 
13,  515.56,  520.38,  3756.56,  3424.25 
14,  553.12,  556.88,  3756.75,  3422.00 
15,  592.94,  596.50,  3755.75,  3420.12 
16,  631.25,  635.50,  3757.00,  3416.69 
17,  670.31,  674.50,  3756.81,  3411.94 
18,  710.56,  713.19,  3757.25,  3406.56 
19,  751.69,  751.69,  3757.56,  3391.75 
20,  791.69,  792.44,  3759.00,  3352.19 
21,  830.25,  830.31,  3772.50,  3089.38 
22,  869.06,  871.06,  3794.44,  2641.44 
23,  907.19,  909.25,  3815.50,  2211.50 
24,  943.75,  949.25,  3836.50,  1812.56 
25,  980.50,  987.31,  3852.50,  1458.62 
26,  1022.12,  1025.94,  3869.31,  1133.38 
27,  1064.00,  1066.50,  3880.00,  853.31 
28,  1104.31,  1105.38,  3888.25,  622.81 
29,  1144.56,  1143.88,  3898.06,  438.38 
30,  1185.56,  1183.56,  3911.44,  298.81 
31,  1224.56,  1223.25,  3912.12,  196.75 
32,  1263.06,  1261.94,  3910.69,  125.75 
33,  1300.19,  1301.44,  3911.94,  78.25 
34,  1336.12,  1340.12,  3912.12,  48.25 
35,  1375.56,  1379.00,  3912.62,  30.00 
36,  1420.25,  1419.00,  3910.56,  19.88 
37,  1459.25,  1458.88,  3910.75,  13.19 
38,  1498.00,  1497.25,  3909.50,  9.12 
39,  1538.75,  1537.62,  3907.81,  7.88 
40,  1579.81,  1575.69,  3912.25,  5.88 
41,  1618.69,  1614.50,  3911.06,  6.38 
42,  1657.56,  1652.75,  3913.00,  6.25 
43,  1693.88,  1692.88,  3912.50,  5.75 
44,  1731.19,  1736.19,  3913.44,  6.38 
45,  1769.56,  1772.38,  3913.88,  6.12 
46,  1807.38,  1810.38,  3912.81,  5.38 
47,  1849.31,  1850.38,  3912.75,  6.88 
48,  1891.50,  1892.12,  3912.00,  7.00 
49,  1933.56,  1931.06,  3913.44,  5.94 
50,  1973.06,  1968.75,  3912.94,  5.25 
51,  2012.75,  2007.56,  3912.88,  5.38 
52,  2051.38,  2045.94,  3914.00,  5.50 
53,  2088.69,  2089.31,  3912.88,  5.81 
54,  2125.50,  2131.25,  3913.88,  6.12 
55,  2163.12,  2169.62,  3914.19,  5.88 
56,  2202.00,  2206.31,  3914.56,  5.62 
57,  2242.69,  2246.25,  3913.44,  5.12 
58,  2285.75,  2285.50,  3913.56,  6.12 
59,  2327.06,  2323.62,  3913.44,  6.25 
60,  2366.19,  2363.06,  3915.00,  6.50 
61,  2404.19,  2400.00,  3916.69,  6.38 
62,  2440.94,  2439.94,  3915.62,  4.75 
63,  2478.69,  2479.06,  3917.19,  7.00 
64,  2515.62,  2517.94,  3916.62,  5.50 
65,  2558.50,  2557.75,  3916.19,  5.75 
66,  2595.94,  2596.44,  3916.31,  6.88 
67,  2636.44,  2636.88,  3915.06,  5.12 
68,  2678.44,  2675.62,  3913.81,  6.00 
69,  2719.56,  2715.94,  3913.50,  6.25 
70,  2759.12,  2753.62,  3911.62,  5.62 
71,  2797.06,  2793.19,  3917.25,  4.12 
72,  2836.38,  2831.81,  3920.12,  5.75 
73,  2873.75,  2871.88,  3922.12,  6.50 
74,  2911.19,  2910.50,  3920.69,  5.38 
75,  2952.81,  2950.12,  3919.56,  6.12 
76,  2989.75,  2989.81,  3919.12,  5.38 
77,  3031.19,  3029.25,  3918.19,  7.12 
78,  3072.12,  3069.31,  3916.56,  5.25 
79,  3111.81,  3107.81,  3916.62,  5.12 
80,  3151.19,  3146.88,  3917.19,  6.00 
81,  3189.62,  3187.00,  3918.00,  5.62 
82,  3229.12,  3224.81,  3918.38,  6.00 
83,  3268.12,  3265.31,  3918.56,  6.12 
84,  3306.12,  3304.00,  3919.00,  7.50 
85,  3344.12,  3342.56,  3919.62,  6.75 
86,  3382.62,  3381.19,  3917.94,  5.88 
87,  3422.31,  3419.19,  3918.31,  4.88 
88,  3464.25,  3458.06,  3916.69,  5.75 
89,  3503.75,  3497.19,  3916.94,  6.88 
90,  3543.50,  3540.31,  3915.19,  6.00 
91,  3582.31,  3583.69,  3917.00,  6.00 
92,  3621.06,  3620.88,  3919.56,  6.00 
93,  3661.06,  3659.25,  3919.62,  5.00 
94,  3701.31,  3698.81,  3921.50,  5.75 
95,  3740.19,  3737.94,  3921.00,  5.75 
96,  3778.56,  3777.56,  3921.25,  6.12 
97,  3819.44,  3816.94,  3921.44,  6.25 
98,  3857.75,  3855.50,  3921.56,  5.00 
99,  3898.25,  3895.69,  3922.31,  6.75 
100,  3916.06,  3908.81,  3923.12,  5.25 
